# 3ds Max Wavefront OBJ Exporter v0.97b - (c)2007 guruware
# File Created: 07.09.2015 05:55:15

newmtl wire_224086086
	Ns 32
	d 1
	Tr 0
	Tf 1 1 1
	illum 2
	Ka 0.8784 0.3373 0.3373
	Kd 0.8784 0.3373 0.3373
	Ks 0.3500 0.3500 0.3500

newmtl wire_087224198
	Ns 32
	d 1
	Tr 0
	Tf 1 1 1
	illum 2
	Ka 0.3412 0.8784 0.7765
	Kd 0.3412 0.8784 0.7765
	Ks 0.3500 0.3500 0.3500

newmtl wire_177028149
	Ns 32
	d 1
	Tr 0
	Tf 1 1 1
	illum 2
	Ka 0.6941 0.1098 0.5843
	Kd 0.6941 0.1098 0.5843
	Ks 0.3500 0.3500 0.3500

newmtl wire_224198087
	Ns 32
	d 1
	Tr 0
	Tf 1 1 1
	illum 2
	Ka 0.8784 0.7765 0.3412
	Kd 0.8784 0.7765 0.3412
	Ks 0.3500 0.3500 0.3500

newmtl wire_006134006
	Ns 32
	d 1
	Tr 0
	Tf 1 1 1
	illum 2
	Ka 0.0235 0.5255 0.0235
	Kd 0.0235 0.5255 0.0235
	Ks 0.3500 0.3500 0.3500

newmtl wire_028089177
	Ns 32
	d 1
	Tr 0
	Tf 1 1 1
	illum 2
	Ka 0.1098 0.3490 0.6941
	Kd 0.1098 0.3490 0.6941
	Ks 0.3500 0.3500 0.3500
